…
```r
deserts
```

```
## # A tibble: 34,786 x 13
##    record_id month   day  year plot_id species_id sex   hindfoot_length weight
##        <dbl> <dbl> <dbl> <dbl>   <dbl> <chr>      <chr>           <dbl>  <dbl>
##  1         1     7    16  1977       2 NL         M                  32     NA
##  2         2     7    16  1977       3 NL         M                  33     NA
##  3         3     7    16  1977       2 DM         F                  37     NA
##  4         4     7    16  1977       7 DM         M                  36     NA
##  5         5     7    16  1977       3 DM         M                  35     NA
##  6         6     7    16  1977       1 PF         M                  14     NA
##  7         7     7    16  1977       2 PE         F                  NA     NA
##  8         8     7    16  1977       1 DM         M                  37     NA
##  9         9     7    16  1977       1 DM         F                  34     NA
## 10        10     7    16  1977       6 PF         F                  20     NA
## # … with 34,776 more rows, and 4 more variables: genus <chr>, species <chr>,
## #   taxa <chr>, plot_type <chr>
```
…
```r
deserts %>% 
  count(genus)
```

```
## # A tibble: 26 x 2
##    genus                n
##  * <chr>            <int>
##  1 Ammodramus           2
##  2 Ammospermophilus   437
##  3 Amphispiza         303
##  4 Baiomys             46
##  5 Calamospiza         13
##  6 Callipepla          16
##  7 Campylorhynchus     50
##  8 Chaetodipus       6029
##  9 Cnemidophorus        2
## 10 Crotalus             2
## # … with 16 more rows
```
There are a total of 26 genera represented in the data.



```r
deserts %>% 
  filter(species!="NA") %>% 
  count(species, sort=T)
```

```
## # A tibble: 40 x 2
##    species          n
##    <chr>        <int>
##  1 merriami     10596
##  2 penicillatus  3123
##  3 ordii         3027
##  4 baileyi       2891
##  5 megalotis     2609
##  6 spectabilis   2504
##  7 torridus      2249
##  8 flavus        1597
##  9 eremicus      1299
## 10 albigula      1252
## # … with 30 more rows
```
…
9. Which two species have, on average, the highest weight? Once you have identified them, make a new column that is a ratio of `weight` to `hindfoot_length`. Make a plot that shows the range of this new ratio and fill by sex.

```r
deserts %>% 
  filter(weight!="NA") %>% 
  group_by(species) %>% 
  summarise(avg_weight=mean(weight, na.rm=T)) %>% 
  arrange(desc(avg_weight))
```

```
## # A tibble: 22 x 2
##    species      avg_weight
##    <chr>             <dbl>
##  1 albigula          159. 
##  2 spectabilis       120. 
##  3 spilosoma          93.5
##  4 hispidus           65.6
##  5 fulviventer        58.9
##  6 ochrognathus       55.4
##  7 ordii              48.9
##  8 merriami           43.2
##  9 baileyi            31.7
## 10 leucogaster        31.6
## # … with 12 more rows
```
Albigula and spectabilis have the highest weight on average.


```r
deserts %>% 
  filter(weight!="NA") %>%
  mutate(weight_to_hindfoot_length_ratio=weight/hindfoot_length) %>%
  group_by(species) %>% 
  select(species, weight_to_hindfoot_length_ratio) %>% 
  arrange(desc(weight_to_hindfoot_length_ratio))
```

```
## # A tibble: 32,283 x 2
## # Groups:   species [22]
##    species  weight_to_hindfoot_length_ratio
##    <chr>                              <dbl>
##  1 baileyi                            15   
##  2 albigula                            8.69
##  3 albigula                            8.48
##  4 albigula                            8.44
##  5 albigula                            8.30
##  6 albigula                            7.91
##  7 albigula                            7.88
##  8 albigula                            7.88
##  9 albigula                            7.85
## 10 albigula                            7.85
## # … with 32,273 more rows
```
…
