Data Visualization: ggplot part 3
…
homerange <- read_csv(here("lab11", "data", "Tamburelloetal_HomeRangeDatabase.csv"))

Line plots

Line plots are great when you need to show changes over time. Here we look at the number of samples for species DM and DS over the years represented in the data.

deserts %>% 
  filter(species_id=="DM" | species_id=="DS") %>% 
  group_by(year, species_id) %>% 
  summarise(n=n())

## `summarise()` has grouped output by 'year'. You can override using the `.groups` argument.

## # A tibble: 47 x 3
## # Groups:   year [26]
##     year species_id     n
##    <dbl> <chr>      <int>
##  1  1977 DM           264
##  2  1977 DS            98
##  3  1978 DM           389
##  4  1978 DS           320
##  5  1979 DM           209
##  6  1979 DS           204
##  7  1980 DM           493
##  8  1980 DS           346
##  9  1981 DM           559
## 10  1981 DS           354
## #  with 37 more rows
…
