…
```r
gapminder <- janitor::clean_names(gapminder)
gapminder
```

```
## # A tibble: 1,704 x 6
##    country     continent  year life_exp      pop gdp_percap
##    <fct>       <fct>     <int>    <dbl>    <int>      <dbl>
##  1 Afghanistan Asia       1952     28.8  8425333       779.
##  2 Afghanistan Asia       1957     30.3  9240934       821.
##  3 Afghanistan Asia       1962     32.0 10267083       853.
##  4 Afghanistan Asia       1967     34.0 11537966       836.
##  5 Afghanistan Asia       1972     36.1 13079460       740.
##  6 Afghanistan Asia       1977     38.4 14880372       786.
##  7 Afghanistan Asia       1982     39.9 12881816       978.
##  8 Afghanistan Asia       1987     40.8 13867957       852.
##  9 Afghanistan Asia       1992     41.7 16317921       649.
## 10 Afghanistan Asia       1997     41.8 22227415       635.
## # ... with 1,694 more rows
```
…
**4. Your answer above doesn't tell the whole story since life expectancy varies by region. Make a summary that shows the min, mean, and max life expectancy by continent for all years represented in the data.**

```r
gapminder %>% 
  group_by(year, continent) %>% 
  summarise(min_life_exp=min(life_exp),
            mean_life_exp=mean(life_exp),
            max_life_exp=max(life_exp), .groups="keep")
```

```
## # A tibble: 60 x 5
## # Groups:   year, continent [60]
##    year  continent min_life_exp mean_life_exp max_life_exp
##    <fct> <fct>            <dbl>         <dbl>        <dbl>
##  1 1952  Africa            30            39.1         52.7
##  2 1952  Americas          37.6          53.3         68.8
##  3 1952  Asia              28.8          46.3         65.4
##  4 1952  Europe            43.6          64.4         72.7
##  5 1952  Oceania           69.1          69.3         69.4
##  6 1957  Africa            31.6          41.3         58.1
##  7 1957  Americas          40.7          56.0         70.0
##  8 1957  Asia              30.3          49.3         67.8
##  9 1957  Europe            48.1          66.7         73.5
## 10 1957  Oceania           70.3          70.3         70.3
## # ... with 50 more rows
```
…
**7. Which countries have had the largest population growth since 1952?**

```r
gapminder %>% 
  select(country, year, pop) %>%
  filter(year=="1952" | year=="2007") %>% 
  pivot_wider(names_from = year,
              names_prefix = "year_",
              values_from = pop) %>% 
  mutate(pop_growth= year_2007-year_1952) %>% 
  arrange(desc(pop_growth))
```

```
## # A tibble: 142 x 4
##    country       year_1952  year_2007 pop_growth
##    <fct>             <int>      <int>      <int>
##  1 China         556263527 1318683096  762419569
##  2 India         372000000 1110396331  738396331
##  3 United States 157553000  301139947  143586947
##  4 Indonesia      82052000  223547000  141495000
##  5 Brazil         56602560  190010647  133408087
##  6 Pakistan       41346560  169270617  127924057
##  7 Bangladesh     46886859  150448339  103561480
##  8 Nigeria        33119096  135031164  101912068
##  9 Mexico         30144317  108700891   78556574
## 10 Philippines    22438691   91077287   68638596
## # ... with 132 more rows
```
…
