…
## Review
Now that you have been introduced to `ggplot`, let's practice a few more plot types. Remember that plots are built in layers: **plot= data + geom_ + aesthetics**. We have to specify each of these in order for a plot to be produced. If you get stuck, it is often helpful to stop and make a quick sketch of what you want or expect to see on a piece of scratch paper.  

Let's review using the `penguins` data. First, get an idea of the structure: Are the data tidy? Are there NA's? Are the variables discrete, categorical, or continuous?

```r
penguins
```

```
## # A tibble: 344 x 8
##    species island bill_length_mm bill_depth_mm flipper_length_… body_mass_g
##    <fct>   <fct>           <dbl>         <dbl>            <int>       <int>
##  1 Adelie  Torge…           39.1          18.7              181        3750
##  2 Adelie  Torge…           39.5          17.4              186        3800
##  3 Adelie  Torge…           40.3          18                195        3250
##  4 Adelie  Torge…           NA            NA                 NA          NA
##  5 Adelie  Torge…           36.7          19.3              193        3450
##  6 Adelie  Torge…           39.3          20.6              190        3650
##  7 Adelie  Torge…           38.9          17.8              181        3625
##  8 Adelie  Torge…           39.2          19.6              195        4675
##  9 Adelie  Torge…           34.1          18.1              193        3475
## 10 Adelie  Torge…           42            20.2              190        4250
## # … with 334 more rows, and 2 more variables: sex <fct>, year <int>
```
…
## Box Plots
For the next series of examples, we will use the `homerange` data.  **Database of vertebrate home range sizes.**   

Reference: Tamburello N, Cote IM, Dulvy NK (2015) Energy and the scaling of animal space use. The American Naturalist 186(2):196-211. http://dx.doi.org/10.1086/682070.  
Data: http://datadryad.org/resource/doi:10.5061/dryad.q5j65/1  


```r
homerange <- read_csv(here("lab9", "data", "Tamburelloetal_HomeRangeDatabase.csv"))
homerange
```

```
## # A tibble: 569 x 24
##    taxon common.name class order family genus species primarymethod N    
##    <chr> <chr>       <chr> <chr> <chr>  <chr> <chr>   <chr>         <chr>
##  1 lake… american e… acti… angu… angui… angu… rostra… telemetry     16   
##  2 rive… blacktail … acti… cypr… catos… moxo… poecil… mark-recaptu… <NA> 
##  3 rive… central st… acti… cypr… cypri… camp… anomal… mark-recaptu… 20   
##  4 rive… rosyside d… acti… cypr… cypri… clin… fundul… mark-recaptu… 26   
##  5 rive… longnose d… acti… cypr… cypri… rhin… catara… mark-recaptu… 17   
##  6 rive… muskellunge acti… esoc… esoci… esox  masqui… telemetry     5    
##  7 mari… pollack     acti… gadi… gadid… poll… pollac… telemetry     2    
##  8 mari… saithe      acti… gadi… gadid… poll… virens  telemetry     2    
##  9 mari… lined surg… acti… perc… acant… acan… lineat… direct obser… <NA> 
## 10 mari… orangespin… acti… perc… acant… naso  litura… telemetry     8    
## # … with 559 more rows, and 15 more variables: mean.mass.g <dbl>,
## #   log10.mass <dbl>, alternative.mass.reference <chr>, mean.hra.m2 <dbl>,
## #   log10.hra <dbl>, hra.reference <chr>, realm <chr>, thermoregulation <chr>,
## #   locomotion <chr>, trophic.guild <chr>, dimension <chr>, preymass <dbl>,
## #   log10.preymass <dbl>, PPMR <dbl>, prey.size.reference <chr>
```
…
```r
homerange
```

```
## # A tibble: 569 x 24
##    taxon common.name class order family genus species primarymethod N    
##    <chr> <chr>       <chr> <chr> <chr>  <chr> <chr>   <chr>         <chr>
##  1 lake… american e… acti… angu… angui… angu… rostra… telemetry     16   
##  2 rive… blacktail … acti… cypr… catos… moxo… poecil… mark-recaptu… <NA> 
##  3 rive… central st… acti… cypr… cypri… camp… anomal… mark-recaptu… 20   
##  4 rive… rosyside d… acti… cypr… cypri… clin… fundul… mark-recaptu… 26   
##  5 rive… longnose d… acti… cypr… cypri… rhin… catara… mark-recaptu… 17   
##  6 rive… muskellunge acti… esoc… esoci… esox  masqui… telemetry     5    
##  7 mari… pollack     acti… gadi… gadid… poll… pollac… telemetry     2    
##  8 mari… saithe      acti… gadi… gadid… poll… virens  telemetry     2    
##  9 mari… lined surg… acti… perc… acant… acan… lineat… direct obser… <NA> 
## 10 mari… orangespin… acti… perc… acant… naso  litura… telemetry     8    
## # … with 559 more rows, and 15 more variables: mean.mass.g <dbl>,
## #   log10.mass <dbl>, alternative.mass.reference <chr>, mean.hra.m2 <dbl>,
## #   log10.hra <dbl>, hra.reference <chr>, realm <chr>, thermoregulation <chr>,
## #   locomotion <chr>, trophic.guild <chr>, dimension <chr>, preymass <dbl>,
## #   log10.preymass <dbl>, PPMR <dbl>, prey.size.reference <chr>
```
…
3. Now use a boxplot to visualize the range of body mass by family of carnivore.

```r
homerange %>% 
  filter(taxon=="mammals", trophic.guild=="carnivore") %>% 
  select(family, log10.mass)
```

```
## # A tibble: 80 x 2
##    family          log10.mass
##    <chr>                <dbl>
##  1 chrysochloridae       2.64
##  2 chrysochloridae       1.36
##  3 canidae               3.70
##  4 canidae               4.44
##  5 canidae               3.87
##  6 canidae               3.60
##  7 canidae               3.65
##  8 canidae               3.51
##  9 canidae               3.32
## 10 eupleridae            3.98
## # … with 70 more rows
```
…
