…
```r
naniar::miss_var_summary(homerange)
```

```
## # A tibble: 24 x 3
##    variable                   n_miss pct_miss
##    <chr>                       <int>    <dbl>
##  1 alternative.mass.reference    561   98.6  
##  2 preymass                      502   88.2  
##  3 log10.preymass                502   88.2  
##  4 PPMR                          502   88.2  
##  5 prey.size.reference           502   88.2  
##  6 N                             375   65.9  
##  7 primarymethod                   1    0.176
##  8 taxon                           0    0    
##  9 common.name                     0    0    
## 10 class                           0    0    
## # … with 14 more rows
```
…
```r
homerange %>% 
  filter(class=="mammalia")
```

```
## # A tibble: 238 x 24
##    taxon common.name class order family genus species primarymethod N    
##    <chr> <chr>       <chr> <chr> <chr>  <chr> <chr>   <chr>         <chr>
##  1 mamm… giant gold… mamm… afro… chrys… chry… trevel… telemetry*    <NA> 
##  2 mamm… Grant's go… mamm… afro… chrys… erem… granti  telemetry*    <NA> 
##  3 mamm… pronghorn   mamm… arti… antil… anti… americ… telemetry*    <NA> 
##  4 mamm… impala      mamm… arti… bovid… aepy… melamp… telemetry*    <NA> 
##  5 mamm… hartebeest  mamm… arti… bovid… alce… busela… telemetry*    <NA> 
##  6 mamm… barbary sh… mamm… arti… bovid… ammo… lervia  telemetry*    <NA> 
##  7 mamm… American b… mamm… arti… bovid… bison bison   telemetry*    <NA> 
##  8 mamm… European b… mamm… arti… bovid… bison bonasus telemetry*    <NA> 
##  9 mamm… goat        mamm… arti… bovid… capra hircus  telemetry*    <NA> 
## 10 mamm… Spanish ib… mamm… arti… bovid… capra pyrena… telemetry*    <NA> 
## # … with 228 more rows, and 15 more variables: mean.mass.g <dbl>,
## #   log10.mass <dbl>, alternative.mass.reference <chr>, mean.hra.m2 <dbl>,
## #   log10.hra <dbl>, hra.reference <chr>, realm <chr>, thermoregulation <chr>,
## #   locomotion <chr>, trophic.guild <chr>, dimension <chr>, preymass <dbl>,
## #   log10.preymass <dbl>, PPMR <dbl>, prey.size.reference <chr>
```
…
