…
## Practice
1. Are these data tidy? Please use `pivot_longer()` to tidy the data.

```r
expenditures%>% 
  pivot_longer(-expenditure,
               names_to="year",
               values_to="bn_dollars"
               )
```

```
## # A tibble: 25 x 3
##    expenditure         year  bn_dollars
##    <chr>               <chr>      <dbl>
##  1 Food and Tobacco    1940        22.2
##  2 Food and Tobacco    1945        44.5
##  3 Food and Tobacco    1950        59.6
##  4 Food and Tobacco    1955        73.2
##  5 Food and Tobacco    1960        86.8
##  6 Household Operation 1940        10.5
##  7 Household Operation 1945        15.5
##  8 Household Operation 1950        29  
##  9 Household Operation 1955        36.5
## 10 Household Operation 1960        46.2
## # … with 15 more rows
```
…
## Practice
1. Re-examine `heartrate2`. Use `separate()` for the sexes, `pivot_longer()` to tidy, and `arrange()` to organize by patient and drug. Store this as a new object `heartrate3`.  

```r
heartrate3 <- heartrate2 %>% 
  separate(patient, into= c("patient", "sex"), sep = "_") %>% 
  pivot_longer(-c(patient, sex),
               names_to="drug",
               values_to="heartrate"
               )
heartrate3  
```

```
## # A tibble: 24 x 4
##    patient  sex   drug  heartrate
##    <chr>    <chr> <chr>     <dbl>
##  1 Margaret f     a            72
##  2 Margaret f     b            74
##  3 Margaret f     c            80
##  4 Margaret f     d            68
##  5 Frank    m     a            84
##  6 Frank    m     b            84
##  7 Frank    m     c            88
##  8 Frank    m     d            76
##  9 Hawkeye  m     a            64
## 10 Hawkeye  m     b            66
## # … with 14 more rows
```

2. `unite()` is the opposite of separate(). Its syntax is straightforward. You only need to give a new column name and then list the columns to combine with a separation character.  Give it a try below by recombining patient and sex from `heartrate3`.  

```r
heartrate3_unite <- heartrate3 %>% 
  unite(patient_sex, "patient", "sex", sep = "_")
heartrate3_unite
```

```
## # A tibble: 24 x 3
##    patient_sex drug  heartrate
##    <chr>       <chr>     <dbl>
##  1 Margaret_f  a            72
##  2 Margaret_f  b            74
##  3 Margaret_f  c            80
##  4 Margaret_f  d            68
##  5 Frank_m     a            84
##  6 Frank_m     b            84
##  7 Frank_m     c            88
##  8 Frank_m     d            76
##  9 Hawkeye_m   a            64
## 10 Hawkeye_m   b            66
## # … with 14 more rows
```
…
```r
beachbugs
```

```
## # A tibble: 66 x 3
##     year site                    buglevels
##    <dbl> <chr>                       <dbl>
##  1  2013 Bondi Beach                 32.2 
##  2  2013 Bronte Beach                26.8 
##  3  2013 Clovelly Beach               9.28
##  4  2013 Coogee Beach                39.7 
##  5  2013 Gordons Bay (East)          24.8 
##  6  2013 Little Bay Beach           122.  
##  7  2013 Malabar Beach              101.  
##  8  2013 Maroubra Beach              47.1 
##  9  2013 South Maroubra Beach        39.3 
## 10  2013 South Maroubra Rockpool     96.4 
## # … with 56 more rows
```
…
```r
beachbugs_longer <- beachbugs_wider %>% 
  pivot_longer(-year,
               names_to="site",
               values_to="buglevels")
beachbugs_longer
```

```
## # A tibble: 66 x 3
##     year site                    buglevels
##    <dbl> <chr>                       <dbl>
##  1  2013 Bondi Beach                 32.2 
##  2  2013 Bronte Beach                26.8 
##  3  2013 Clovelly Beach               9.28
##  4  2013 Coogee Beach                39.7 
##  5  2013 Gordons Bay (East)          24.8 
##  6  2013 Little Bay Beach           122.  
##  7  2013 Malabar Beach              101.  
##  8  2013 Maroubra Beach              47.1 
##  9  2013 South Maroubra Beach        39.3 
## 10  2013 South Maroubra Rockpool     96.4 
## # … with 56 more rows
```
…
