…
To fix this problem, we need to reshape the table to long format while keeping track of column names and values. We do this using `pivot_longer()`. Notice that the dimensions of the data frame change.  

```r
heartrate %>% 
  pivot_longer(-patient, #patient does not pivot
               names_to = "drug", 
               values_to = "heartrate"
               )
```

```
## # A tibble: 24 x 3
##    patient  drug  heartrate
##    <chr>    <chr>     <dbl>
##  1 Margaret a            72
##  2 Margaret b            74
##  3 Margaret c            80
##  4 Margaret d            68
##  5 Frank    a            84
##  6 Frank    b            84
##  7 Frank    c            88
##  8 Frank    d            76
##  9 Hawkeye  a            64
## 10 Hawkeye  b            66
## # … with 14 more rows
```
…
3. Use `pivot_longer()` to make the data tidy.  

```r
relig_income %>% 
  pivot_longer(-religion,
               names_to="income",
               values_to="count"
               )
```

```
## # A tibble: 180 x 3
##    religion income             count
##    <chr>    <chr>              <dbl>
##  1 Agnostic <$10k                 27
##  2 Agnostic $10-20k               34
##  3 Agnostic $20-30k               60
##  4 Agnostic $30-40k               81
##  5 Agnostic $40-50k               76
##  6 Agnostic $50-75k              137
##  7 Agnostic $75-100k             122
##  8 Agnostic $100-150k            109
##  9 Agnostic >150k                 84
## 10 Agnostic Don't know/refused    96
## # … with 170 more rows
```
…
```r
billboard
```

```
## # A tibble: 317 x 79
##    artist track date.entered   wk1   wk2   wk3   wk4   wk5   wk6   wk7   wk8
##    <chr>  <chr> <date>       <dbl> <dbl> <dbl> <dbl> <dbl> <dbl> <dbl> <dbl>
##  1 2 Pac  Baby… 2000-02-26      87    82    72    77    87    94    99    NA
##  2 2Ge+h… The … 2000-09-02      91    87    92    NA    NA    NA    NA    NA
##  3 3 Doo… Kryp… 2000-04-08      81    70    68    67    66    57    54    53
##  4 3 Doo… Loser 2000-10-21      76    76    72    69    67    65    55    59
##  5 504 B… Wobb… 2000-04-15      57    34    25    17    17    31    36    49
##  6 98^0   Give… 2000-08-19      51    39    34    26    26    19     2     2
##  7 A*Tee… Danc… 2000-07-08      97    97    96    95   100    NA    NA    NA
##  8 Aaliy… I Do… 2000-01-29      84    62    51    41    38    35    35    38
##  9 Aaliy… Try … 2000-03-18      59    53    38    28    21    18    16    14
## 10 Adams… Open… 2000-08-26      76    76    74    69    68    67    61    58
## # … with 307 more rows, and 68 more variables: wk9 <dbl>, wk10 <dbl>,
## #   wk11 <dbl>, wk12 <dbl>, wk13 <dbl>, wk14 <dbl>, wk15 <dbl>, wk16 <dbl>,
## #   wk17 <dbl>, wk18 <dbl>, wk19 <dbl>, wk20 <dbl>, wk21 <dbl>, wk22 <dbl>,
## #   wk23 <dbl>, wk24 <dbl>, wk25 <dbl>, wk26 <dbl>, wk27 <dbl>, wk28 <dbl>,
## #   wk29 <dbl>, wk30 <dbl>, wk31 <dbl>, wk32 <dbl>, wk33 <dbl>, wk34 <dbl>,
## #   wk35 <dbl>, wk36 <dbl>, wk37 <dbl>, wk38 <dbl>, wk39 <dbl>, wk40 <dbl>,
## #   wk41 <dbl>, wk42 <dbl>, wk43 <dbl>, wk44 <dbl>, wk45 <dbl>, wk46 <dbl>,
## #   wk47 <dbl>, wk48 <dbl>, wk49 <dbl>, wk50 <dbl>, wk51 <dbl>, wk52 <dbl>,
## #   wk53 <dbl>, wk54 <dbl>, wk55 <dbl>, wk56 <dbl>, wk57 <dbl>, wk58 <dbl>,
…
Solution 1: specify a range of columns that you want to pivot.

```r
billboard2 <- 
  billboard %>% 
  pivot_longer(wk1:wk76, # a range of columns
               names_to = "week",
               values_to = "rank",
               values_drop_na = TRUE #this will drop the NA's
               )
billboard2
```

```
## # A tibble: 5,307 x 5
##    artist  track                   date.entered week   rank
##    <chr>   <chr>                   <date>       <chr> <dbl>
##  1 2 Pac   Baby Don't Cry (Keep... 2000-02-26   wk1      87
##  2 2 Pac   Baby Don't Cry (Keep... 2000-02-26   wk2      82
##  3 2 Pac   Baby Don't Cry (Keep... 2000-02-26   wk3      72
##  4 2 Pac   Baby Don't Cry (Keep... 2000-02-26   wk4      77
##  5 2 Pac   Baby Don't Cry (Keep... 2000-02-26   wk5      87
##  6 2 Pac   Baby Don't Cry (Keep... 2000-02-26   wk6      94
##  7 2 Pac   Baby Don't Cry (Keep... 2000-02-26   wk7      99
##  8 2Ge+her The Hardest Part Of ... 2000-09-02   wk1      91
##  9 2Ge+her The Hardest Part Of ... 2000-09-02   wk2      87
## 10 2Ge+her The Hardest Part Of ... 2000-09-02   wk3      92
## # … with 5,297 more rows
```
Solution 2: OR, specify columns that you want to stay fixed.

```r
billboard3 <- 
  billboard %>% 
  pivot_longer(-c(artist, track, date.entered), #specific columns
               names_to = "week",
               values_to = "rank",
               values_drop_na = TRUE
               )
billboard3
```

```
## # A tibble: 5,307 x 5
##    artist  track                   date.entered week   rank
##    <chr>   <chr>                   <date>       <chr> <dbl>
##  1 2 Pac   Baby Don't Cry (Keep... 2000-02-26   wk1      87
##  2 2 Pac   Baby Don't Cry (Keep... 2000-02-26   wk2      82
##  3 2 Pac   Baby Don't Cry (Keep... 2000-02-26   wk3      72
##  4 2 Pac   Baby Don't Cry (Keep... 2000-02-26   wk4      77
##  5 2 Pac   Baby Don't Cry (Keep... 2000-02-26   wk5      87
##  6 2 Pac   Baby Don't Cry (Keep... 2000-02-26   wk6      94
##  7 2 Pac   Baby Don't Cry (Keep... 2000-02-26   wk7      99
##  8 2Ge+her The Hardest Part Of ... 2000-09-02   wk1      91
##  9 2Ge+her The Hardest Part Of ... 2000-09-02   wk2      87
## 10 2Ge+her The Hardest Part Of ... 2000-09-02   wk3      92
## # … with 5,297 more rows
```

Solution 3: identify columns by a prefix, remove the prefix and all NA's.

```r
billboard %>% 
   pivot_longer(
   cols = starts_with("wk"),
   names_to = "week",
   names_prefix = "wk",
   values_to = "rank",
   values_drop_na = TRUE)
```

```
## # A tibble: 5,307 x 5
##    artist  track                   date.entered week   rank
##    <chr>   <chr>                   <date>       <chr> <dbl>
##  1 2 Pac   Baby Don't Cry (Keep... 2000-02-26   1        87
##  2 2 Pac   Baby Don't Cry (Keep... 2000-02-26   2        82
##  3 2 Pac   Baby Don't Cry (Keep... 2000-02-26   3        72
##  4 2 Pac   Baby Don't Cry (Keep... 2000-02-26   4        77
##  5 2 Pac   Baby Don't Cry (Keep... 2000-02-26   5        87
##  6 2 Pac   Baby Don't Cry (Keep... 2000-02-26   6        94
##  7 2 Pac   Baby Don't Cry (Keep... 2000-02-26   7        99
##  8 2Ge+her The Hardest Part Of ... 2000-09-02   1        91
##  9 2Ge+her The Hardest Part Of ... 2000-09-02   2        87
## 10 2Ge+her The Hardest Part Of ... 2000-09-02   3        92
## # … with 5,297 more rows
```
…
3. Use `pivot_longer()` to make the data tidy. Focus the data only on genotype, day, and measurement.  

```r
plant_data %>% 
  pivot_longer(
    cols=starts_with("day"),
    names_to="day",
    names_prefix="day",
    values_to="measurement"
  ) %>% 
  select(genotype, day, measurement)
```

```
## # A tibble: 90 x 3
##    genotype day   measurement
##    <chr>    <chr>       <dbl>
##  1 control  1            21.7
##  2 control  2            19.9
##  3 control  3            20.7
##  4 control  4            19.4
##  5 control  5            20.2
##  6 control  6            19.2
##  7 control  7            20.6
##  8 control  8            19.9
##  9 control  9            19.2
## 10 control  10           20.4
## # … with 80 more rows
```
…
`names_sep` helps pull these apart, but we still have "exp" and "rep" to deal with.  

```r
qpcr_untidy %>% 
  pivot_longer(
    exp1_rep1:exp3_rep3,
    names_to= c("experiment", "replicate"),
    names_sep="_",
    values_to="mRNA_expression"
  )
```

```
## # A tibble: 45 x 4
##    gene  experiment replicate mRNA_expression
##    <chr> <chr>      <chr>               <dbl>
##  1 A     exp1       rep1                 21.7
##  2 A     exp1       rep2                 19.8
##  3 A     exp1       rep3                 20.7
##  4 A     exp2       rep1                 18.3
##  5 A     exp2       rep2                 20.4
##  6 A     exp2       rep3                 17.6
##  7 A     exp3       rep1                 20.6
##  8 A     exp3       rep2                 19.9
##  9 A     exp3       rep3                 19.2
## 10 B     exp1       rep1                 24.3
## # … with 35 more rows
```
…
