…
```r
spider_list$Butte
#> # A tibble: 1 x 9
#>   Accession Family  Genus  Country State   County Locality       Date  Collector
#>       <dbl> <chr>   <chr>  <chr>   <chr>   <chr>  <chr>          <chr> <chr>    
#> 1   9038509 Telemi… Usofi… USA     Califo… Butte  Dry Creek Rd,… 2/3/… RO Schus…
```

## Merging Files
We are fortunate here in that all of our data frames have the same column names. This makes it easy to merge the data together with `bind_rows()` from`dplyr`. `bind_rows()` matches columns by name.

```r
spiders_all <- bind_rows(spider_list)
spiders_all
#> # A tibble: 270 x 9
#>    Accession Family  Genus  Country State  County  Locality     Date  Collector 
#>        <dbl> <chr>   <chr>  <chr>   <chr>  <chr>   <chr>        <chr> <chr>     
#>  1   9038521 Telemi… Usofi… USA     Calif… Alameda Berkeley     2/3/… LM Smith  
#>  2   9038522 Telemi… Usofi… USA     Calif… Alameda Castro Vall… 24/3… WM Pearce 
#>  3   9038523 Telemi… Usofi… USA     Calif… Alameda Niles, off … 2/1/… V Roth    
#>  4   9038524 Telemi… Usofi… USA     Calif… Alameda Oakland      18/2… WG Bentin…
#>  5   9038525 Telemi… Usofi… USA     Calif… Alameda Oakland      25/1… R Schuster
#>  6   9038526 Telemi… Usofi… USA     Calif… Alameda Oakland      18/2… WC Bentin…
#>  7   9038527 Telemi… Usofi… USA     Calif… Alameda Oakland      10/1… J Helfer  
#>  8  90386281 Telemi… Usofi… USA     Calif… Alameda Oakland, Mo… 17/1… Roth, Sch…
#>  9   9038529 Telemi… Usofi… USA     Calif… Alameda Oakland, Mo… 17/1… Roth, Sch…
#> 10  90387441 Telemi… Usofi… USA     Calif… Alameda Berkeley, C… 17/2… PR Craig,…
#> # … with 260 more rows
```
…
```r
anti_exampleDF <- anti_join(table_A, table_B, by="customer_ID")
anti_exampleDF
#> # A tibble: 1 x 5
#>   customer_ID n_orders total_value_orders ave_value_orders last_order_date
#>         <dbl>    <dbl>              <dbl>            <dbl> <chr>          
#> 1           3        4                 40               10 3/6/20
```
## Joining the spider data
Here, the latitude and longitude for each spider were recorded from the field records at a later date, and now we need to join it to our `spiders_all` data frame. The lat/long were recorded into one single file for each observation. Let's read in the lat/long data.

```r
spiders_locs <- read_csv("data/spiders locations/spiders_locations.csv")
spiders_locs
#> # A tibble: 270 x 3
#>    Accession Latitude Longitude
#>        <dbl>    <dbl>     <dbl>
#>  1   9038521     37.9     -122.
#>  2   9038522     37.7     -122.
#>  3   9038523     37.6     -122.
#>  4   9038524     37.8     -122.
#>  5   9038525     37.8     -122.
#>  6   9038526     37.8     -122.
#>  7   9038527     37.8     -122.
#>  8  90386281     37.8     -122.
#>  9   9038529     37.8     -122.
#> 10  90387441     37.9     -122.
#> # … with 260 more rows
```

We will use a join here to merge lat/long to our data frame. Both files contain a unique identifier called `Accession` which we will use to join.  

## Practice
1. Which type of join is most appropriate in this case?  

```r
spiders_with_locs <- left_join(spiders_all, spiders_locs, by = c("Accession"))
spiders_with_locs
#> # A tibble: 270 x 11
#>    Accession Family Genus Country State County Locality Date  Collector Latitude
#>        <dbl> <chr>  <chr> <chr>   <chr> <chr>  <chr>    <chr> <chr>        <dbl>
#>  1   9038521 Telem… Usof… USA     Cali… Alame… Berkeley 2/3/… LM Smith      37.9
#>  2   9038522 Telem… Usof… USA     Cali… Alame… Castro … 24/3… WM Pearce     37.7
#>  3   9038523 Telem… Usof… USA     Cali… Alame… Niles, … 2/1/… V Roth        37.6
#>  4   9038524 Telem… Usof… USA     Cali… Alame… Oakland  18/2… WG Benti…     37.8
#>  5   9038525 Telem… Usof… USA     Cali… Alame… Oakland  25/1… R Schust…     37.8
#>  6   9038526 Telem… Usof… USA     Cali… Alame… Oakland  18/2… WC Benti…     37.8
#>  7   9038527 Telem… Usof… USA     Cali… Alame… Oakland  10/1… J Helfer      37.8
#>  8  90386281 Telem… Usof… USA     Cali… Alame… Oakland… 17/1… Roth, Sc…     37.8
#>  9   9038529 Telem… Usof… USA     Cali… Alame… Oakland… 17/1… Roth, Sc…     37.8
#> 10  90387441 Telem… Usof… USA     Cali… Alame… Berkele… 17/2… PR Craig…     37.9
#> # … with 260 more rows, and 1 more variable: Longitude <dbl>
```
…
