…
```
## [1] "lakeid"          "fish_id"         "annnumber"       "length"         
## [5] "radii_length_mm" "scalelength"
```

We are only interested in lakeid and scalelength.

```r
select(fish, "lakeid", "scalelength")
```

```
## # A tibble: 4,033 x 2
##    lakeid scalelength
##    <chr>        <dbl>
##  1 AL            2.70
##  2 AL            2.70
##  3 AL            2.70
##  4 AL            3.02
##  5 AL            3.02
##  6 AL            3.02
##  7 AL            3.02
##  8 AL            3.34
##  9 AL            3.34
## 10 AL            3.34
## # … with 4,023 more rows
```

To add a range of columns use `start_col:end_col`.

```r
fish
```

```
## # A tibble: 4,033 x 6
##    lakeid fish_id annnumber length radii_length_mm scalelength
##    <chr>    <dbl> <chr>      <dbl>           <dbl>       <dbl>
##  1 AL         299 EDGE         167            2.70        2.70
##  2 AL         299 2            167            2.04        2.70
##  3 AL         299 1            167            1.31        2.70
##  4 AL         300 EDGE         175            3.02        3.02
##  5 AL         300 3            175            2.67        3.02
##  6 AL         300 2            175            2.14        3.02
##  7 AL         300 1            175            1.23        3.02
##  8 AL         301 EDGE         194            3.34        3.34
##  9 AL         301 3            194            2.97        3.34
## 10 AL         301 2            194            2.29        3.34
## # … with 4,023 more rows
```


```r
select(fish, fish_id:length)
```

```
## # A tibble: 4,033 x 3
##    fish_id annnumber length
##      <dbl> <chr>      <dbl>
##  1     299 EDGE         167
##  2     299 2            167
##  3     299 1            167
##  4     300 EDGE         175
##  5     300 3            175
##  6     300 2            175
##  7     300 1            175
##  8     301 EDGE         194
##  9     301 3            194
## 10     301 2            194
## # … with 4,023 more rows
```

The - operator is useful in select. It allows us to select everything except the specified variables.

```r
select(fish, -fish_id, -annnumber, -length, -radii_length_mm)
```

```
## # A tibble: 4,033 x 2
##    lakeid scalelength
##    <chr>        <dbl>
##  1 AL            2.70
##  2 AL            2.70
##  3 AL            2.70
##  4 AL            3.02
##  5 AL            3.02
##  6 AL            3.02
##  7 AL            3.02
##  8 AL            3.34
##  9 AL            3.34
## 10 AL            3.34
## # … with 4,023 more rows
```
…
```
## [1] "lakeid"          "fish_id"         "annnumber"       "length"         
## [5] "radii_length_mm" "scalelength"
```


```r
select(fish, contains("length"))
```

```
## # A tibble: 4,033 x 3
##    length radii_length_mm scalelength
##     <dbl>           <dbl>       <dbl>
##  1    167            2.70        2.70
##  2    167            2.04        2.70
##  3    167            1.31        2.70
##  4    175            3.02        3.02
##  5    175            2.67        3.02
##  6    175            2.14        3.02
##  7    175            1.23        3.02
##  8    194            3.34        3.34
##  9    194            2.97        3.34
## 10    194            2.29        3.34
## # … with 4,023 more rows
```

When columns are sequentially named, `starts_with()` makes selecting columns easier.

```r
select(fish, starts_with("radii"))
```

```
## # A tibble: 4,033 x 1
##    radii_length_mm
##              <dbl>
##  1            2.70
##  2            2.04
##  3            1.31
##  4            3.02
##  5            2.67
##  6            2.14
##  7            1.23
##  8            3.34
##  9            2.97
## 10            2.29
## # … with 4,023 more rows
```
…
```
## [1] "lakeid"          "fish_id"         "annnumber"       "length"         
## [5] "radii_length_mm" "scalelength"
```


```r
select(fish, ends_with("id"))
```

```
## # A tibble: 4,033 x 2
##    lakeid fish_id
##    <chr>    <dbl>
##  1 AL         299
##  2 AL         299
##  3 AL         299
##  4 AL         300
##  5 AL         300
##  6 AL         300
##  7 AL         300
##  8 AL         301
##  9 AL         301
## 10 AL         301
## # … with 4,023 more rows
```

```r
select(fish, contains("fish"))
```

```
## # A tibble: 4,033 x 1
##    fish_id
##      <dbl>
##  1     299
##  2     299
##  3     299
##  4     300
##  5     300
##  6     300
##  7     300
##  8     301
##  9     301
## 10     301
## # … with 4,023 more rows
```


We won't cover [regex](https://en.wikipedia.org/wiki/Regular_expression) in this class, but the following code is helpful when you know that a column contains a letter (in this case "a") followed by a subsequent string (in this case "er").  

```r
select(fish, matches("a.+er"))
```

```
## # A tibble: 4,033 x 1
##    annnumber
##    <chr>    
##  1 EDGE     
##  2 2        
##  3 1        
##  4 EDGE     
##  5 3        
##  6 2        
##  7 1        
##  8 EDGE     
##  9 3        
## 10 2        
## # … with 4,023 more rows
```
…
```r
select_if(fish, is.numeric)
```

```
## # A tibble: 4,033 x 4
##    fish_id length radii_length_mm scalelength
##      <dbl>  <dbl>           <dbl>       <dbl>
##  1     299    167            2.70        2.70
##  2     299    167            2.04        2.70
##  3     299    167            1.31        2.70
##  4     300    175            3.02        3.02
##  5     300    175            2.67        3.02
##  6     300    175            2.14        3.02
##  7     300    175            1.23        3.02
##  8     301    194            3.34        3.34
##  9     301    194            2.97        3.34
## 10     301    194            2.29        3.34
## # … with 4,023 more rows
```

To select all columns that are *not* a class of data, you need to add a `~`.

```r
select_if(fish, ~!is.numeric(.))
```

```
## # A tibble: 4,033 x 2
##    lakeid annnumber
##    <chr>  <chr>    
##  1 AL     EDGE     
##  2 AL     2        
##  3 AL     1        
##  4 AL     EDGE     
##  5 AL     3        
##  6 AL     2        
##  7 AL     1        
##  8 AL     EDGE     
##  9 AL     3        
## 10 AL     2        
## # … with 4,023 more rows
```
…
```
## [1] NA
```


```r
x <- mammals[ 11]
x
```

```
## # A tibble: 1,440 x 1
##    `max. life`
##          <dbl>
##  1         142
##  2         308
##  3         213
##  4         240
##  5        -999
##  6         251
##  7         228
##  8         255
##  9         300
## 10         324
## # … with 1,430 more rows
```
…
```
##  [1] "order"        "family"       "Genus"        "species"      "mass"        
##  [6] "gestation"    "newborn"      "weaning"      "wean mass"    "AFR"         
## [11] "max. life"    "litter size"  "litters/year"
```

4. Rename any columns that have capital letters or punctuation issues.  

```r
mammals_new <- rename(mammals, genus="Genus", wean_mass="wean mass", max_life= "max. life", litter_size="litter size", litters_per_year="litters/year")
mammals_new
```

```
## # A tibble: 1,440 x 13
##    order family genus species   mass gestation newborn weaning wean_mass    AFR
##    <chr> <chr>  <chr> <chr>    <dbl>     <dbl>   <dbl>   <dbl>     <dbl>  <dbl>
##  1 Arti… Antil… Anti… americ… 4.54e4      8.13   3246.    3         8900   13.5
##  2 Arti… Bovid… Addax nasoma… 1.82e5      9.39   5480     6.5       -999   27.3
##  3 Arti… Bovid… Aepy… melamp… 4.15e4      6.35   5093     5.63     15900   16.7
##  4 Arti… Bovid… Alce… busela… 1.50e5      7.9   10167.    6.5       -999   23.0
##  5 Arti… Bovid… Ammo… clarkei 2.85e4      6.8    -999  -999         -999 -999  
##  6 Arti… Bovid… Ammo… lervia  5.55e4      5.08   3810     4         -999   14.9
##  7 Arti… Bovid… Anti… marsup… 3.00e4      5.72   3910     4.04      -999   10.2
##  8 Arti… Bovid… Anti… cervic… 3.75e4      5.5    3846     2.13      -999   20.1
##  9 Arti… Bovid… Bison bison   4.98e5      8.93  20000    10.7     157500   29.4
## 10 Arti… Bovid… Bison bonasus 5.00e5      9.14  23000.    6.6       -999   30.0
## # … with 1,430 more rows, and 3 more variables: max_life <dbl>,
## #   litter_size <dbl>, litters_per_year <dbl>
```

5. We are only interested in the variables `genus`, `species`, and `mass`. Use `select()` to build a new dataframe `mass` focused on these variables.

```r
mass <- select(mammals_new, "genus", "species", "mass")
mass
```

```
## # A tibble: 1,440 x 3
##    genus       species          mass
##    <chr>       <chr>           <dbl>
##  1 Antilocapra americana      45375 
##  2 Addax       nasomaculatus 182375 
##  3 Aepyceros   melampus       41480 
##  4 Alcelaphus  buselaphus    150000 
##  5 Ammodorcas  clarkei        28500 
##  6 Ammotragus  lervia         55500 
##  7 Antidorcas  marsupialis    30000 
##  8 Antilope    cervicapra     37500 
##  9 Bison       bison         497667.
## 10 Bison       bonasus       500000 
## # … with 1,430 more rows
```

-IF UNHAPPY WITH ORDER, JUST REORDER COLUMNS

```r
select(mammals_new, "species", "genus", "mass")
```

```
## # A tibble: 1,440 x 3
##    species       genus          mass
##    <chr>         <chr>         <dbl>
##  1 americana     Antilocapra  45375 
##  2 nasomaculatus Addax       182375 
##  3 melampus      Aepyceros    41480 
##  4 buselaphus    Alcelaphus  150000 
##  5 clarkei       Ammodorcas   28500 
##  6 lervia        Ammotragus   55500 
##  7 marsupialis   Antidorcas   30000 
##  8 cervicapra    Antilope     37500 
##  9 bison         Bison       497667.
## 10 bonasus       Bison       500000 
## # … with 1,430 more rows
```

6. What if we only wanted to exclude `order` and `family`? Use the `-` operator to make the code efficient.

```r
select(mammals_new, -order, -family)
```

```
## # A tibble: 1,440 x 11
##    genus species   mass gestation newborn weaning wean_mass    AFR max_life
##    <chr> <chr>    <dbl>     <dbl>   <dbl>   <dbl>     <dbl>  <dbl>    <dbl>
##  1 Anti… americ… 4.54e4      8.13   3246.    3         8900   13.5      142
##  2 Addax nasoma… 1.82e5      9.39   5480     6.5       -999   27.3      308
##  3 Aepy… melamp… 4.15e4      6.35   5093     5.63     15900   16.7      213
##  4 Alce… busela… 1.50e5      7.9   10167.    6.5       -999   23.0      240
##  5 Ammo… clarkei 2.85e4      6.8    -999  -999         -999 -999       -999
##  6 Ammo… lervia  5.55e4      5.08   3810     4         -999   14.9      251
##  7 Anti… marsup… 3.00e4      5.72   3910     4.04      -999   10.2      228
##  8 Anti… cervic… 3.75e4      5.5    3846     2.13      -999   20.1      255
##  9 Bison bison   4.98e5      8.93  20000    10.7     157500   29.4      300
## 10 Bison bonasus 5.00e5      9.14  23000.    6.6       -999   30.0      324
## # … with 1,430 more rows, and 2 more variables: litter_size <dbl>,
## #   litters_per_year <dbl>
```

7. Select the columns that include "mass" as part of the name.  

```r
select(mammals_new, contains("mass"))
```

```
## # A tibble: 1,440 x 2
##       mass wean_mass
##      <dbl>     <dbl>
##  1  45375       8900
##  2 182375       -999
##  3  41480      15900
##  4 150000       -999
##  5  28500       -999
##  6  55500       -999
##  7  30000       -999
##  8  37500       -999
##  9 497667.    157500
## 10 500000       -999
## # … with 1,430 more rows
```

8. Select all of the columns that are of class `character`.  

```r
select_if(mammals_new, ~is.character(.))
```

```
## # A tibble: 1,440 x 4
##    order        family         genus       species      
##    <chr>        <chr>          <chr>       <chr>        
##  1 Artiodactyla Antilocapridae Antilocapra americana    
##  2 Artiodactyla Bovidae        Addax       nasomaculatus
##  3 Artiodactyla Bovidae        Aepyceros   melampus     
##  4 Artiodactyla Bovidae        Alcelaphus  buselaphus   
##  5 Artiodactyla Bovidae        Ammodorcas  clarkei      
##  6 Artiodactyla Bovidae        Ammotragus  lervia       
##  7 Artiodactyla Bovidae        Antidorcas  marsupialis  
##  8 Artiodactyla Bovidae        Antilope    cervicapra   
##  9 Artiodactyla Bovidae        Bison       bison        
## 10 Artiodactyla Bovidae        Bison       bonasus      
## # … with 1,430 more rows
```

## Other
Here are two examples of code that are super helpful to have in your bag of tricks.  

Imported data frames often have a mix of lower and uppercase column names. Use `toupper()` or `tolower()` to fix this issue. I always try to use lowercase to keep things consistent.  

```r
mammals <- select_all(mammals, tolower)
mammals
```

```
## # A tibble: 1,440 x 13
##    order family genus species   mass gestation newborn weaning `wean mass`
##    <chr> <chr>  <chr> <chr>    <dbl>     <dbl>   <dbl>   <dbl>       <dbl>
##  1 Arti… Antil… Anti… americ… 4.54e4      8.13   3246.    3           8900
##  2 Arti… Bovid… Addax nasoma… 1.82e5      9.39   5480     6.5         -999
##  3 Arti… Bovid… Aepy… melamp… 4.15e4      6.35   5093     5.63       15900
##  4 Arti… Bovid… Alce… busela… 1.50e5      7.9   10167.    6.5         -999
##  5 Arti… Bovid… Ammo… clarkei 2.85e4      6.8    -999  -999           -999
##  6 Arti… Bovid… Ammo… lervia  5.55e4      5.08   3810     4           -999
##  7 Arti… Bovid… Anti… marsup… 3.00e4      5.72   3910     4.04        -999
##  8 Arti… Bovid… Anti… cervic… 3.75e4      5.5    3846     2.13        -999
##  9 Arti… Bovid… Bison bison   4.98e5      8.93  20000    10.7       157500
## 10 Arti… Bovid… Bison bonasus 5.00e5      9.14  23000.    6.6         -999
## # … with 1,430 more rows, and 4 more variables: afr <dbl>, `max. life` <dbl>,
## #   `litter size` <dbl>, `litters/year` <dbl>
```
…
```
##  [1] "order"        "family"       "genus"        "species"      "mass"        
##  [6] "gestation"    "newborn"      "weaning"      "wean mass"    "afr"         
## [11] "max. life"    "litter size"  "litters/year"
```

When naming columns, blank spaces are often added (don't do this, please). Here is a trick to remove these.  

```r
select_all(mammals, ~str_replace(., " ", "_"))
```

```
## # A tibble: 1,440 x 13
##    order family genus species   mass gestation newborn weaning wean_mass    afr
##    <chr> <chr>  <chr> <chr>    <dbl>     <dbl>   <dbl>   <dbl>     <dbl>  <dbl>
##  1 Arti… Antil… Anti… americ… 4.54e4      8.13   3246.    3         8900   13.5
##  2 Arti… Bovid… Addax nasoma… 1.82e5      9.39   5480     6.5       -999   27.3
##  3 Arti… Bovid… Aepy… melamp… 4.15e4      6.35   5093     5.63     15900   16.7
##  4 Arti… Bovid… Alce… busela… 1.50e5      7.9   10167.    6.5       -999   23.0
##  5 Arti… Bovid… Ammo… clarkei 2.85e4      6.8    -999  -999         -999 -999  
##  6 Arti… Bovid… Ammo… lervia  5.55e4      5.08   3810     4         -999   14.9
##  7 Arti… Bovid… Anti… marsup… 3.00e4      5.72   3910     4.04      -999   10.2
##  8 Arti… Bovid… Anti… cervic… 3.75e4      5.5    3846     2.13      -999   20.1
##  9 Arti… Bovid… Bison bison   4.98e5      8.93  20000    10.7     157500   29.4
## 10 Arti… Bovid… Bison bonasus 5.00e5      9.14  23000.    6.6       -999   30.0
## # … with 1,430 more rows, and 3 more variables: max._life <dbl>,
## #   litter_size <dbl>, `litters/year` <dbl>
```
…
