…
**4. What taxa are represented in the `homerange` data frame? Make a new data frame `taxa` that is restricted to taxon, common name, class, order, family, genus, species.**  

```r
homerange_restricted <- select(homerange, "taxon", common_name = "common.name", "class", "order", "family", "genus", "species")
homerange_restricted
```

```
## # A tibble: 569 x 7
##    taxon     common_name       class      order     family    genus    species  
##    <fct>     <chr>             <chr>      <fct>     <chr>     <chr>    <chr>    
##  1 lake fis… american eel      actinopte… anguilli… anguilli… anguilla rostrata 
##  2 river fi… blacktail redhor… actinopte… cyprinif… catostom… moxosto… poecilura
##  3 river fi… central stonerol… actinopte… cyprinif… cyprinid… campost… anomalum 
##  4 river fi… rosyside dace     actinopte… cyprinif… cyprinid… clinost… funduloi…
##  5 river fi… longnose dace     actinopte… cyprinif… cyprinid… rhinich… cataract…
##  6 river fi… muskellunge       actinopte… esocifor… esocidae  esox     masquino…
##  7 marine f… pollack           actinopte… gadiform… gadidae   pollach… pollachi…
##  8 marine f… saithe            actinopte… gadiform… gadidae   pollach… virens   
##  9 marine f… lined surgeonfish actinopte… percifor… acanthur… acanthu… lineatus 
## 10 marine f… orangespine unic… actinopte… percifor… acanthur… naso     lituratus
## # … with 559 more rows
```
…
**6. The species in `homerange` are also classified into trophic guilds. How many species are represented in each trophic guild.**  

```r
trophic_guilds <- select(homerange, "species", trophic_guild = "trophic.guild")
trophic_guilds
```

```
## # A tibble: 569 x 2
##    species     trophic_guild
##    <chr>       <chr>        
##  1 rostrata    carnivore    
##  2 poecilura   carnivore    
##  3 anomalum    carnivore    
##  4 funduloides carnivore    
##  5 cataractae  carnivore    
##  6 masquinongy carnivore    
##  7 pollachius  carnivore    
##  8 virens      carnivore    
##  9 lineatus    herbivore    
## 10 lituratus   herbivore    
## # … with 559 more rows
```


```r
carnivore_species <- filter(trophic_guilds, trophic_guild == "carnivore")
carnivore_species
```

```
## # A tibble: 342 x 2
##    species     trophic_guild
##    <chr>       <chr>        
##  1 rostrata    carnivore    
##  2 poecilura   carnivore    
##  3 anomalum    carnivore    
##  4 funduloides carnivore    
##  5 cataractae  carnivore    
##  6 masquinongy carnivore    
##  7 pollachius  carnivore    
##  8 virens      carnivore    
##  9 ignobilis   carnivore    
## 10 rupestris   carnivore    
## # … with 332 more rows
```
…
```
## [1] 342
```
There are 342 carnivores.


```r
herbivore_species <- filter(trophic_guilds, trophic_guild == "herbivore")
herbivore_species
```

```
## # A tibble: 227 x 2
##    species    trophic_guild
##    <chr>      <chr>        
##  1 lineatus   herbivore    
##  2 lituratus  herbivore    
##  3 unicornis  herbivore    
##  4 atlanticus herbivore    
##  5 sectatrix  herbivore    
##  6 argi       herbivore    
##  7 chromis    herbivore    
##  8 biocellata herbivore    
##  9 wardi      herbivore    
## 10 apicalis   herbivore    
## # … with 217 more rows
```
…
**7. Make two new data frames, one which is restricted to carnivores and another that is restricted to herbivores.**  

```r
carnivores <- filter(homerange, trophic.guild == "carnivore")
carnivores
```

```
## # A tibble: 342 x 24
##    taxon common.name class order family genus species primarymethod N    
##    <fct> <chr>       <chr> <fct> <chr>  <chr> <chr>   <chr>         <chr>
##  1 lake… american e… acti… angu… angui… angu… rostra… telemetry     16   
##  2 rive… blacktail … acti… cypr… catos… moxo… poecil… mark-recaptu… <NA> 
##  3 rive… central st… acti… cypr… cypri… camp… anomal… mark-recaptu… 20   
##  4 rive… rosyside d… acti… cypr… cypri… clin… fundul… mark-recaptu… 26   
##  5 rive… longnose d… acti… cypr… cypri… rhin… catara… mark-recaptu… 17   
##  6 rive… muskellunge acti… esoc… esoci… esox  masqui… telemetry     5    
##  7 mari… pollack     acti… gadi… gadid… poll… pollac… telemetry     2    
##  8 mari… saithe      acti… gadi… gadid… poll… virens  telemetry     2    
##  9 mari… giant trev… acti… perc… caran… cara… ignobi… telemetry     4    
## 10 lake… rock bass   acti… perc… centr… ambl… rupest… mark-recaptu… 16   
## # … with 332 more rows, and 15 more variables: mean.mass.g <dbl>,
## #   log10.mass <dbl>, alternative.mass.reference <chr>, mean.hra.m2 <dbl>,
## #   log10.hra <dbl>, hra.reference <chr>, realm <chr>, thermoregulation <chr>,
## #   locomotion <chr>, trophic.guild <chr>, dimension <chr>, preymass <dbl>,
## #   log10.preymass <dbl>, PPMR <dbl>, prey.size.reference <chr>
```


```r
herbivores <- filter(homerange, trophic.guild == "herbivore")
herbivores
```

```
## # A tibble: 227 x 24
##    taxon common.name class order family genus species primarymethod N    
##    <fct> <chr>       <chr> <fct> <chr>  <chr> <chr>   <chr>         <chr>
##  1 mari… lined surg… acti… perc… acant… acan… lineat… direct obser… <NA> 
##  2 mari… orangespin… acti… perc… acant… naso  litura… telemetry     8    
##  3 mari… bluespine … acti… perc… acant… naso  unicor… telemetry     7    
##  4 mari… redlip ble… acti… perc… blenn… ophi… atlant… direct obser… 20   
##  5 mari… bermuda ch… acti… perc… kypho… kyph… sectat… telemetry     11   
##  6 mari… cherubfish  acti… perc… pomac… cent… argi    direct obser… <NA> 
##  7 mari… damselfish  acti… perc… pomac… chro… chromis direct obser… <NA> 
##  8 mari… twinspot d… acti… perc… pomac… chry… biocel… direct obser… 18   
##  9 mari… wards dams… acti… perc… pomac… poma… wardi   direct obser… <NA> 
## 10 mari… australian… acti… perc… pomac… steg… apical… direct obser… <NA> 
## # … with 217 more rows, and 15 more variables: mean.mass.g <dbl>,
## #   log10.mass <dbl>, alternative.mass.reference <chr>, mean.hra.m2 <dbl>,
## #   log10.hra <dbl>, hra.reference <chr>, realm <chr>, thermoregulation <chr>,
## #   locomotion <chr>, trophic.guild <chr>, dimension <chr>, preymass <dbl>,
## #   log10.preymass <dbl>, PPMR <dbl>, prey.size.reference <chr>
```
…
**9. Make a new dataframe `deer` that is limited to the mean mass, log10 mass, family, genus, and species of deer in the database. The family for deer is cervidae. Arrange the data in descending order by log10 mass. Which is the largest deer? What is its common name?** 

```r
not_just_deer <- select(homerange, "mean.mass.g", "log10.mass", "family", "genus", "species")
not_just_deer
```

```
## # A tibble: 569 x 5
##    mean.mass.g log10.mass family       genus       species    
##          <dbl>      <dbl> <chr>        <chr>       <chr>      
##  1        887       2.95  anguillidae  anguilla    rostrata   
##  2        562       2.75  catostomidae moxostoma   poecilura  
##  3         34       1.53  cyprinidae   campostoma  anomalum   
##  4          4       0.602 cyprinidae   clinostomus funduloides
##  5          4       0.602 cyprinidae   rhinichthys cataractae 
##  6       3525       3.55  esocidae     esox        masquinongy
##  7        737.      2.87  gadidae      pollachius  pollachius 
##  8        449.      2.65  gadidae      pollachius  virens     
##  9        109.      2.04  acanthuridae acanthurus  lineatus   
## 10        772.      2.89  acanthuridae naso        lituratus  
## # … with 559 more rows
```
…
