…
```r
fisheries_tidy %>% 
  count(country)
```

```
## # A tibble: 203 x 2
##    country                 n
##  * <fct>               <int>
##  1 Albania               934
##  2 Algeria              1561
##  3 American Samoa        556
##  4 Angola               2119
##  5 Anguilla              129
##  6 Antigua and Barbuda   356
##  7 Argentina            3403
##  8 Aruba                 172
##  9 Australia            8183
## 10 Bahamas               423
## # … with 193 more rows
```
There are 203 countries represented in the data.



4. Refocus the data only to include only: country, isscaap_taxonomic_group, asfis_species_name, asfis_species_number, year, catch.

```r
fisheries_tidy %>% 
  select(country, isscaap_taxonomic_group, asfis_species_name, asfis_species_number, year, catch)
```

```
## # A tibble: 376,771 x 6
##    country isscaap_taxonomic_g… asfis_species_na… asfis_species_num…  year catch
##    <fct>   <chr>                <chr>             <fct>              <dbl> <dbl>
##  1 Albania Sharks, rays, chima… Squatinidae       10903XXXXX          1995    NA
##  2 Albania Sharks, rays, chima… Squatinidae       10903XXXXX          1996    53
##  3 Albania Sharks, rays, chima… Squatinidae       10903XXXXX          1997    20
##  4 Albania Sharks, rays, chima… Squatinidae       10903XXXXX          1998    31
##  5 Albania Sharks, rays, chima… Squatinidae       10903XXXXX          1999    30
##  6 Albania Sharks, rays, chima… Squatinidae       10903XXXXX          2000    30
##  7 Albania Sharks, rays, chima… Squatinidae       10903XXXXX          2001    16
##  8 Albania Sharks, rays, chima… Squatinidae       10903XXXXX          2002    79
##  9 Albania Sharks, rays, chima… Squatinidae       10903XXXXX          2003     1
## 10 Albania Sharks, rays, chima… Squatinidae       10903XXXXX          2004     4
## # … with 376,761 more rows
```
…
6. Which country had the largest overall catch in the year 2000?

```r
fisheries_tidy %>% 
  filter(year=="2000") %>% 
  arrange(desc(catch))
```

```
## # A tibble: 8,793 x 10
##    country common_name isscaap_group_n… isscaap_taxonom… asfis_species_n…
##    <fct>   <chr>       <fct>            <chr>            <fct>           
##  1 China   Marine fis… 39               Marine fishes n… 199XXXXXXX010   
##  2 Peru    Anchoveta(… 35               Herrings, sardi… 1210600208      
##  3 Russia… Alaska pol… 32               Cods, hakes, ha… 1480401601      
##  4 Viet N… Marine fis… 39               Marine fishes n… 199XXXXXXX010   
##  5 Chile   Chilean ja… 37               Miscellaneous p… 1702300405      
##  6 China   Marine mol… 58               Miscellaneous m… 399XXXXXXX016   
##  7 China   Largehead … 34               Miscellaneous d… 1750600302      
##  8 United… Alaska pol… 32               Cods, hakes, ha… 1480401601      
##  9 China   Marine cru… 47               Miscellaneous m… 299XXXXXXX013   
## 10 Philip… Scads nei   37               Miscellaneous p… 17023043XX      
## # … with 8,783 more rows, and 5 more variables: asfis_species_name <chr>,
## #   fao_major_fishing_area <fct>, measure <chr>, year <dbl>, catch <dbl>
```
China had the largest overall catch in the year 2000.


7. Which country caught the most sardines (_Sardina pilchardus_) between the years 1990-2000?

```r
fisheries_tidy %>% 
  filter(between(year, 1990, 2000)) %>% 
  filter(asfis_species_name=="Sardina pilchardus") %>% 
  arrange(desc(catch))
```

```
## # A tibble: 336 x 10
##    country common_name isscaap_group_n… isscaap_taxonom… asfis_species_n…
##    <fct>   <chr>       <fct>            <chr>            <fct>           
##  1 Morocco European p… 35               Herrings, sardi… 1210506401      
##  2 Morocco European p… 35               Herrings, sardi… 1210506401      
##  3 Spain   European p… 35               Herrings, sardi… 1210506401      
##  4 Morocco European p… 35               Herrings, sardi… 1210506401      
##  5 Morocco European p… 35               Herrings, sardi… 1210506401      
##  6 Morocco European p… 35               Herrings, sardi… 1210506401      
##  7 Morocco European p… 35               Herrings, sardi… 1210506401      
##  8 Morocco European p… 35               Herrings, sardi… 1210506401      
##  9 Russia… European p… 35               Herrings, sardi… 1210506401      
## 10 Russia… European p… 35               Herrings, sardi… 1210506401      
## # … with 326 more rows, and 5 more variables: asfis_species_name <chr>,
## #   fao_major_fishing_area <fct>, measure <chr>, year <dbl>, catch <dbl>
```
Morocco caught the most sardines between the years 1990-2000.


8. Which five countries caught the most cephalopods between 2008-2012?

```r
fisheries_tidy %>% 
  filter(between(year, 2008, 2012)) %>%
  filter(asfis_species_name=="Cephalopoda") %>%
  arrange(desc(catch))
```

```
## # A tibble: 80 x 10
##    country common_name isscaap_group_n… isscaap_taxonom… asfis_species_n…
##    <fct>   <chr>       <fct>            <chr>            <fct>           
##  1 India   Cephalopod… 57               Squids, cuttlef… 321XXXXXXX      
##  2 India   Cephalopod… 57               Squids, cuttlef… 321XXXXXXX      
##  3 India   Cephalopod… 57               Squids, cuttlef… 321XXXXXXX      
##  4 China   Cephalopod… 57               Squids, cuttlef… 321XXXXXXX      
##  5 China   Cephalopod… 57               Squids, cuttlef… 321XXXXXXX      
##  6 Italy   Cephalopod… 57               Squids, cuttlef… 321XXXXXXX      
##  7 India   Cephalopod… 57               Squids, cuttlef… 321XXXXXXX      
##  8 India   Cephalopod… 57               Squids, cuttlef… 321XXXXXXX      
##  9 India   Cephalopod… 57               Squids, cuttlef… 321XXXXXXX      
## 10 Spain   Cephalopod… 57               Squids, cuttlef… 321XXXXXXX      
## # … with 70 more rows, and 5 more variables: asfis_species_name <chr>,
## #   fao_major_fishing_area <fct>, measure <chr>, year <dbl>, catch <dbl>
```
India, China, Italy, Spain, and Algeria caught the most cephalopods between 2008-2012.


9. Which species had the highest catch total between 2008-2012? (hint: Osteichthyes is not a species)

```r
fisheries_tidy %>% 
  filter(between(year, 2008, 2012)) %>% 
  group_by(asfis_species_name) %>% 
  summarize(total_catch = sum(catch), na.rm=T) %>% 
  arrange(desc(total_catch))
```

```
## # A tibble: 1,472 x 3
##    asfis_species_name    total_catch na.rm
##    <chr>                       <dbl> <lgl>
##  1 Theragra chalcogramma       41075 TRUE 
##  2 Engraulis ringens           35523 TRUE 
##  3 Cololabis saira              5733 TRUE 
##  4 Sardinella longiceps         3849 TRUE 
##  5 Sardinops caeruleus          3204 TRUE 
##  6 Brevoortia patronus          3179 TRUE 
##  7 Acetes japonicus             2915 TRUE 
##  8 Squillidae                   2884 TRUE 
##  9 Trachurus japonicus          2710 TRUE 
## 10 Ammodytes personatus         2611 TRUE 
## # … with 1,462 more rows
```
Theragra chalcogramma had the highest total catch between 2008-2012.


10. Use the data to do at least one analysis of your choice.

```r
fisheries_tidy %>% 
  filter(between(year, 2002, 2004)) %>% 
  group_by(country) %>% 
  summarise(mean_catch= mean(catch), na.rm=T) %>% 
  arrange(mean_catch)
```

```
## # A tibble: 193 x 3
##    country                mean_catch na.rm
##    <fct>                       <dbl> <lgl>
##  1 French Guiana                1.83 TRUE 
##  2 Monaco                       3    TRUE 
##  3 Pitcairn Islands             4.33 TRUE 
##  4 Bosnia and Herzegovina       5    TRUE 
##  5 Jordan                      13.3  TRUE 
##  6 TimorLeste                  13.7  TRUE 
##  7 Montserrat                  32.3  TRUE 
##  8 Sudan (former)              40    TRUE 
##  9 Aruba                       40.4  TRUE 
## 10 Bangladesh                 242.   TRUE 
## # … with 183 more rows
```
…
