…
**5. Make any necessary replacements in the data such that all NA's appear as "NA".**   

```r
amniota_tidy <- amniota%>% 
  na_if("-999") %>% 
  na_if("-30258.71")
amniota_tidy
```

```
## # A tibble: 21,322 x 36
##    class order family genus species subspecies common_name female_maturity~
##    <chr> <chr> <chr>  <chr> <chr>        <dbl> <chr>                  <dbl>
##  1 Aves  Acci~ Accip~ Acci~ albogu~         NA Pied Gosha~              NA 
##  2 Aves  Acci~ Accip~ Acci~ badius          NA Shikra                  363.
##  3 Aves  Acci~ Accip~ Acci~ bicolor         NA Bicolored ~              NA 
##  4 Aves  Acci~ Accip~ Acci~ brachy~         NA New Britai~              NA 
##  5 Aves  Acci~ Accip~ Acci~ brevip~         NA Levant Spa~             363.
##  6 Aves  Acci~ Accip~ Acci~ castan~         NA Chestnut-f~              NA 
##  7 Aves  Acci~ Accip~ Acci~ chilen~         NA Chilean Ha~              NA 
##  8 Aves  Acci~ Accip~ Acci~ chiono~         NA White-brea~             548.
##  9 Aves  Acci~ Accip~ Acci~ cirroc~         NA Collared S~              NA 
## 10 Aves  Acci~ Accip~ Acci~ cooper~         NA Cooper's H~             730 
## # ... with 21,312 more rows, and 28 more variables:
## #   litter_or_clutch_size_n <dbl>, litters_or_clutches_per_y <dbl>,
## #   adult_body_mass_g <dbl>, maximum_longevity_y <dbl>, gestation_d <dbl>,
## #   weaning_d <dbl>, birth_or_hatching_weight_g <dbl>, weaning_weight_g <dbl>,
## #   egg_mass_g <dbl>, incubation_d <dbl>, fledging_age_d <dbl>,
## #   longevity_y <dbl>, male_maturity_d <dbl>,
## #   inter_litter_or_interbirth_interval_y <dbl>, female_body_mass_g <dbl>,
## #   male_body_mass_g <dbl>, no_sex_body_mass_g <dbl>, egg_width_mm <dbl>,
## #   egg_length_mm <dbl>, fledging_mass_g <dbl>, adult_svl_cm <dbl>,
…
<style>
div.blue { background-color:#e6f0ff; border-radius: 5px; padding: 20px;}
</style>
<div class = "blue">

**6. Use the package `naniar` to produce a summary, including percentages, of missing data in each column for the `amniota` data.**  

```r
naniar::miss_var_summary(amniota)
```

```
## # A tibble: 36 x 3
##    variable                  n_miss pct_miss
##    <chr>                      <int>    <dbl>
##  1 class                          0        0
##  2 order                          0        0
##  3 family                         0        0
##  4 genus                          0        0
##  5 species                        0        0
##  6 subspecies                     0        0
##  7 common_name                    0        0
##  8 female_maturity_d              0        0
##  9 litter_or_clutch_size_n        0        0
## 10 litters_or_clutches_per_y      0        0
## # ... with 26 more rows
```
</div>

**7. Use the package `naniar` to produce a summary, including percentages, of missing data in each column for the `amphibio` data.**

```r
naniar::miss_var_summary(amphibio)
```

```
## # A tibble: 38 x 3
##    variable n_miss pct_miss
##    <chr>     <int>    <dbl>
##  1 obs        6776    100  
##  2 fruits     6774    100. 
##  3 flowers    6772     99.9
##  4 seeds      6772     99.9
##  5 leaves     6752     99.6
##  6 dry_cold   6735     99.4
##  7 vert       6657     98.2
##  8 wet_cold   6625     97.8
##  9 crepu      6608     97.5
## 10 dry_warm   6572     97.0
## # ... with 28 more rows
```
…
