…
```r
life_history %>% 
  purrr::map_df(~(is.na(.)))
```

```
## # A tibble: 1,440 x 13
##    order family genus species mass  gestation newborn weaning wean_mass afr  
##    <lgl> <lgl>  <lgl> <lgl>   <lgl> <lgl>     <lgl>   <lgl>   <lgl>     <lgl>
##  1 FALSE FALSE  FALSE FALSE   FALSE FALSE     FALSE   FALSE   FALSE     FALSE
##  2 FALSE FALSE  FALSE FALSE   FALSE FALSE     FALSE   FALSE   FALSE     FALSE
##  3 FALSE FALSE  FALSE FALSE   FALSE FALSE     FALSE   FALSE   FALSE     FALSE
##  4 FALSE FALSE  FALSE FALSE   FALSE FALSE     FALSE   FALSE   FALSE     FALSE
##  5 FALSE FALSE  FALSE FALSE   FALSE FALSE     FALSE   FALSE   FALSE     FALSE
##  6 FALSE FALSE  FALSE FALSE   FALSE FALSE     FALSE   FALSE   FALSE     FALSE
##  7 FALSE FALSE  FALSE FALSE   FALSE FALSE     FALSE   FALSE   FALSE     FALSE
##  8 FALSE FALSE  FALSE FALSE   FALSE FALSE     FALSE   FALSE   FALSE     FALSE
##  9 FALSE FALSE  FALSE FALSE   FALSE FALSE     FALSE   FALSE   FALSE     FALSE
## 10 FALSE FALSE  FALSE FALSE   FALSE FALSE     FALSE   FALSE   FALSE     FALSE
## # … with 1,430 more rows, and 3 more variables: max_life <lgl>,
## #   litter_size <lgl>, litters_year <lgl>
```
…
