…
Wow, that is a lot of missing data! Let's try `purr`. For a large data set like `amniota` this is very convenient.

```r
amniota_tidy %>% 
  purrr::map_df(~ sum(is.na(.))) %>% 
  pivot_longer(everything(),
    names_to= "variables",
    values_to = "num_nas") %>% 
  arrange(desc(num_nas))
```

```
## # A tibble: 36 x 2
##    variables                      num_nas
##    <chr>                            <int>
##  1 subspecies                       21322
##  2 female_body_mass_at_maturity_g   21318
##  3 female_svl_at_maturity_cm        21120
##  4 fledging_mass_g                  21111
##  5 male_svl_cm                      21040
##  6 no_sex_maturity_d                20860
##  7 egg_width_mm                     20727
##  8 egg_length_mm                    20702
##  9 weaning_weight_g                 20258
## 10 female_svl_cm                    20242
## # … with 26 more rows
```
…
